-------------------------------------------------------------------------------
Test set: ua.com.musiienko.dom_9.MyCalculatorTest
-------------------------------------------------------------------------------
Tests run: 5, Failures: 0, Errors: 0, Skipped: 0, Time elapsed: 0.047 sec
